Early Antibiotic Administration and Improved Outcomes in Sepsis Treatment: A MIMIC-IV Analysis
…
mimic_demo

$patients
# A tibble: 100 × 6
   subject_id gender anchor_age anchor_year anchor_year_group dod       
        <dbl> <chr>       <dbl>       <dbl> <chr>             <date>    
 1   10014729 F              21        2125 2011 - 2013       NA        
 2   10003400 F              72        2134 2011 - 2013       2137-09-02
 3   10002428 F              80        2155 2011 - 2013       NA        
 4   10032725 F              38        2143 2011 - 2013       2143-03-30
 5   10027445 F              48        2142 2011 - 2013       2146-02-09
 6   10037928 F              78        2175 2011 - 2013       NA        
 7   10001725 F              46        2110 2011 - 2013       NA        
 8   10040025 F              64        2143 2011 - 2013       2148-02-07
 9   10008454 F              26        2110 2011 - 2013       NA        
10   10020640 F              91        2153 2011 - 2013       2154-02-04
# ℹ 90 more rows

$admissions
# A tibble: 275 × 16
   subject_id  hadm_id admittime           dischtime          
        <dbl>    <dbl> <dttm>              <dttm>             
 1   10004235 24181354 2196-02-24 14:38:00 2196-03-04 14:02:00
 2   10009628 25926192 2153-09-17 17:08:00 2153-09-25 13:20:00
 3   10018081 23983182 2134-08-18 02:02:00 2134-08-23 19:35:00
 4   10006053 22942076 2111-11-13 23:39:00 2111-11-15 17:20:00
 5   10031404 21606243 2113-08-04 18:46:00 2113-08-06 20:57:00
 6   10005817 20626031 2132-12-12 01:43:00 2132-12-20 15:04:00
 7   10019385 20297618 2180-02-15 20:28:00 2180-02-25 13:45:00
 8   10002495 24982426 2141-05-22 20:17:00 2141-05-29 17:41:00
 9   10038081 20755971 2115-09-27 20:40:00 2115-10-12 00:00:00
10   10019917 22585261 2182-01-07 23:25:00 2182-01-10 16:52:00
# ℹ 265 more rows
# ℹ 12 more variables: deathtime <dttm>, admission_type <chr>,
#   admit_provider_id <chr>, admission_location <chr>,
#   discharge_location <chr>, insurance <chr>, language <chr>,
#   marital_status <chr>, race <chr>, edregtime <dttm>, edouttime <dttm>,
#   hospital_expire_flag <dbl>

$icustays
# A tibble: 140 × 8
   subject_id  hadm_id  stay_id first_careunit last_careunit intime             
        <dbl>    <dbl>    <dbl> <chr>          <chr>         <dttm>             
 1   10018328 23786647 31269608 Neuro Stepdown Neuro Stepdo… 2154-04-24 23:03:44
 2   10020187 24104168 37509585 Neuro Surgica… Neuro Stepdo… 2169-01-15 04:56:00
 3   10020187 26842957 32554129 Neuro Interme… Neuro Interm… 2170-02-24 18:18:46
 4   10012853 27882036 31338022 Trauma SICU (… Trauma SICU … 2176-11-26 02:34:49
 5   10020740 25826145 32145159 Trauma SICU (… Trauma SICU … 2150-06-03 20:12:32
 6   10039708 23819016 38559363 Trauma SICU (… Trauma SICU … 2140-06-18 01:41:00
 7   10020306 23052851 38540883 Trauma SICU (… Trauma SICU … 2135-01-21 17:01:57
 8   10019568 28710730 30876334 Trauma SICU (… Trauma SICU … 2120-01-30 22:51:00
 9   10018081 28861356 38333427 Trauma SICU (… Trauma SICU … 2134-08-05 14:53:33
10   10018081 21027282 37293400 Trauma SICU (… Trauma SICU … 2133-12-18 17:10:00
# ℹ 130 more rows
# ℹ 2 more variables: outtime <dttm>, los <dbl>

$chartevents
# A tibble: 668,862 × 11
   subject_id  hadm_id  stay_id caregiver_id charttime          
        <dbl>    <dbl>    <dbl>        <dbl> <dttm>             
 1   10005817 20626031 32604416         6770 2132-12-16 00:00:00
 2   10005817 20626031 32604416         6770 2132-12-16 00:00:00
 3   10005817 20626031 32604416         6770 2132-12-16 00:00:00
 4   10005817 20626031 32604416         6770 2132-12-16 00:00:00
 5   10005817 20626031 32604416         6770 2132-12-16 00:00:00
 6   10005817 20626031 32604416         6770 2132-12-16 00:00:00
 7   10005817 20626031 32604416         6770 2132-12-16 00:00:00
 8   10005817 20626031 32604416         6770 2132-12-16 00:00:00
 9   10005817 20626031 32604416         6770 2132-12-16 00:00:00
10   10005817 20626031 32604416         6770 2132-12-16 00:00:00
# ℹ 668,852 more rows
# ℹ 6 more variables: storetime <dttm>, itemid <dbl>, value <chr>,
#   valuenum <dbl>, valueuom <chr>, warning <dbl>

$labevents
# A tibble: 107,727 × 16
   labevent_id subject_id  hadm_id specimen_id itemid order_provider_id
         <dbl>      <dbl>    <dbl>       <dbl>  <dbl> <chr>            
 1      172061   10014354 29600294     1808066  51277 <NA>             
 2      172062   10014354 29600294     1808066  51279 <NA>             
 3      172068   10014354 29600294     1808066  52172 <NA>             
 4      172063   10014354 29600294     1808066  51301 <NA>             
 5      172050   10014354 29600294     1808066  51249 <NA>             
 6      172044   10014354 29600294     1808066  51221 <NA>             
 7      172045   10014354 29600294     1808066  51222 <NA>             
 8      172057   10014354 29600294     1808066  51265 <NA>             
 9      172051   10014354 29600294     1808066  51250 <NA>             
10      172049   10014354 29600294     1808066  51248 <NA>             
# ℹ 107,717 more rows
# ℹ 10 more variables: charttime <dttm>, storetime <dttm>, value <chr>,
#   valuenum <dbl>, valueuom <chr>, ref_range_lower <dbl>,
#   ref_range_upper <dbl>, flag <chr>, priority <chr>, comments <chr>

$diagnoses_icd
# A tibble: 4,506 × 5
   subject_id  hadm_id seq_num icd_code icd_version
        <dbl>    <dbl>   <dbl> <chr>          <dbl>
 1   10035185 22580999       3 4139               9
 2   10035185 22580999      10 V707               9
 3   10035185 22580999       1 41401              9
 4   10035185 22580999       9 3899               9
 5   10035185 22580999      11 V8532              9
 6   10035185 22580999       2 25002              9
 7   10035185 22580999       7 71696              9
 8   10035185 22580999       8 V1083              9
 9   10035185 22580999       4 2724               9
10   10035185 22580999       6 V5867              9
# ℹ 4,496 more rows

$prescriptions
# A tibble: 18,087 × 21
   subject_id  hadm_id pharmacy_id poe_id       poe_seq order_provider_id
        <dbl>    <dbl>       <dbl> <chr>          <dbl> <chr>            
 1   10027602 28166872    27168639 <NA>              NA <NA>             
 2   10027602 28166872    40720238 <NA>              NA <NA>             
 3   10027602 28166872    62845687 <NA>              NA <NA>             
 4   10027602 28166872    24340150 <NA>              NA <NA>             
 5   10027602 28166872    14435820 <NA>              NA <NA>             
 6   10023239 29295881    25921880 10023239-119     119 <NA>             
 7   10023239 21759936    66888516 10023239-284     284 P45MRP           
 8   10023239 21759936    85404525 10023239-308     308 P820BX           
 9   10027602 28166872    27602869 <NA>              NA <NA>             
10   10020740 23831430      612287 10020740-830     830 P26UJY           
# ℹ 18,077 more rows
# ℹ 15 more variables: starttime <dttm>, stoptime <dttm>, drug_type <chr>,
#   drug <chr>, formulary_drug_cd <chr>, gsn <chr>, ndc <chr>,
#   prod_strength <chr>, form_rx <chr>, dose_val_rx <chr>, dose_unit_rx <chr>,
#   form_val_disp <chr>, form_unit_disp <chr>, doses_per_24_hrs <dbl>,
#   route <chr>

$inputevents
# A tibble: 20,404 × 26
   subject_id  hadm_id  stay_id caregiver_id starttime          
        <dbl>    <dbl>    <dbl>        <dbl> <dttm>             
 1   10005817 20626031 32604416         4793 2132-12-16 19:50:00
 2   10005817 20626031 32604416        92805 2132-12-15 20:15:00
 3   10005817 20626031 32604416        20310 2132-12-17 09:15:00
 4   10005817 20626031 32604416        79166 2132-12-16 09:36:00
 5   10005817 20626031 32604416        92805 2132-12-15 20:10:00
 6   10005817 20626031 32604416         6770 2132-12-16 02:41:00
 7   10005817 20626031 32604416        92805 2132-12-15 14:52:00
 8   10005817 20626031 32604416        79166 2132-12-16 14:35:00
 9   10005817 20626031 32604416         6770 2132-12-16 06:23:00
10   10005817 20626031 32604416        92805 2132-12-15 18:58:00
# ℹ 20,394 more rows
# ℹ 21 more variables: endtime <dttm>, storetime <dttm>, itemid <dbl>,
#   amount <dbl>, amountuom <chr>, rate <dbl>, rateuom <chr>, orderid <dbl>,
#   linkorderid <dbl>, ordercategoryname <chr>,
#   secondaryordercategoryname <chr>, ordercomponenttypedescription <chr>,
#   ordercategorydescription <chr>, patientweight <dbl>, totalamount <dbl>,
#   totalamountuom <chr>, isopenbag <dbl>, continueinnextdept <dbl>, …

$procedureevents
# A tibble: 1,468 × 22
   subject_id  hadm_id  stay_id caregiver_id starttime          
        <dbl>    <dbl>    <dbl>        <dbl> <dttm>             
 1   10027445 26275841 34499716        10712 2142-07-31 01:54:00
 2   10027445 26275841 34499716        80518 2142-07-31 08:18:00
 3   10027445 26275841 34499716        96407 2142-07-31 06:00:00
 4   10027445 26275841 34499716        96407 2142-07-31 02:00:00
 5   10027445 26275841 34499716           NA 2142-08-03 08:00:00
 6   10027445 26275841 34499716        80518 2142-07-31 09:23:00
 7   10027445 26275841 34499716        80518 2142-07-31 14:30:00
 8   10027445 26275841 34499716        80518 2142-08-01 10:12:00
 9   10027445 26275841 34499716        80518 2142-07-31 12:21:00
10   10027445 26275841 34499716        45248 2142-08-02 10:44:00
# ℹ 1,458 more rows
# ℹ 17 more variables: endtime <dttm>, storetime <dttm>, itemid <dbl>,
#   value <dbl>, valueuom <chr>, location <chr>, locationcategory <chr>,
#   orderid <dbl>, linkorderid <dbl>, ordercategoryname <chr>,
#   ordercategorydescription <chr>, patientweight <dbl>, isopenbag <dbl>,
#   continueinnextdept <dbl>, statusdescription <chr>, ORIGINALAMOUNT <dbl>,
#   ORIGINALRATE <dbl>

$emar
# A tibble: 35,835 × 12
   subject_id  hadm_id emar_id     emar_seq poe_id pharmacy_id enter_provider_id
        <dbl>    <dbl> <chr>          <dbl> <chr>        <dbl> <chr>            
 1   10005909 20199380 10005909-74       74 10005…    96110427 <NA>             
 2   10005909 20199380 10005909-79       79 10005…    96110427 <NA>             
 3   10008287 22168393 10008287-32       32 10008…          NA P26PKF           
 4   10010471 21322534 10010471-33       33 10010…    52131847 <NA>             
 5   10015272 27993466 10015272-31       31 10015…    88758875 <NA>             
 6   10019777 27738145 10019777-14       14 10019…          NA <NA>             
 7   10020187 24104168 10020187-50       50 10020…    25652531 <NA>             
 8   10020187 24104168 10020187-53       53 10020…    25652531 <NA>             
 9   10020187 24104168 10020187-51       51 10020…    25652531 <NA>             
10   10020187 24104168 10020187-52       52 10020…    25652531 <NA>             
# ℹ 35,825 more rows
# ℹ 5 more variables: charttime <dttm>, medication <chr>, event_txt <chr>,
#   scheduletime <dttm>, storetime <dttm>

[[11]]
# A tibble: 2,899 × 25
   microevent_id subject_id  hadm_id micro_specimen_id order_provider_id
           <dbl>      <dbl>    <dbl>             <dbl> <chr>            
 1            36   10000032 25742920           7814634 <NA>             
 2            15   10000032 22595853           5717063 <NA>             
 3            32   10000032 29079034           5901894 <NA>             
 4          7013   10020944 29974575           4646730 <NA>             
 5         12898   10037975 27617929           1636367 <NA>             
 6         10771   10031757 28477280           7612706 <NA>             
 7          7335   10021487 27112038           8016677 <NA>             
 8         14015   10038999 27189241           2819316 <NA>             
 9            28   10000032 22841357           7290073 <NA>             
10          7290   10021487 27660781           5069142 <NA>             
# ℹ 2,889 more rows
# ℹ 20 more variables: chartdate <dttm>, charttime <dttm>, spec_itemid <dbl>,
#   spec_type_desc <chr>, test_seq <dbl>, storedate <dttm>, storetime <dttm>,
#   test_itemid <dbl>, test_name <chr>, org_itemid <dbl>, org_name <chr>,
#   isolate_num <dbl>, quantity <lgl>, ab_itemid <dbl>, ab_name <chr>,
#   dilution_text <chr>, dilution_comparison <chr>, dilution_value <dbl>,
#   interpretation <chr>, comments <chr>

$d_items
# A tibble: 4,014 × 9
   itemid label abbreviation linksto category unitname param_type lownormalvalue
    <dbl> <chr> <chr>        <chr>   <chr>    <chr>    <chr>               <dbl>
 1 226228 Gend… Gender       charte… ADT      <NA>     Text                   NA
 2 226545 Race  Race         charte… ADT      <NA>     Text                   NA
 3 229877 Suct… Suction eve… charte… ECMO     <NA>     Text                   NA
 4 229875 Oxyg… Oxygenator … charte… ECMO     <NA>     Text                   NA
 5 229266 Cann… Cannula sit… charte… ECMO     <NA>     Text                   NA
 6 229846 Swee… Sweep (CH)   charte… ECMO     <NA>     Text                   NA
 7 229267 Emer… Emergency E… charte… ECMO     <NA>     Text                   NA
 8 229269 Circ… Circuit ins… charte… ECMO     <NA>     Text                   NA
 9 229876 Pump… Pump plugge… charte… ECMO     <NA>     Text                   NA
10 229274 Oxyg… Oxygenator … charte… ECMO     <NA>     Text                   NA
# ℹ 4,004 more rows
# ℹ 1 more variable: highnormalvalue <dbl>

$d_labitems
# A tibble: 1,622 × 4
   itemid label                      fluid category 
    <dbl> <chr>                      <chr> <chr>    
 1  50808 Free Calcium               Blood Blood Gas
 2  50826 Tidal Volume               Blood Blood Gas
 3  50813 Lactate                    Blood Blood Gas
 4  52029 % Ionized Calcium          Blood Blood Gas
 5  50801 Alveolar-arterial Gradient Blood Blood Gas
 6  50810 Hematocrit, Calculated     Blood Blood Gas
 7  52025 Delete                     Blood Blood Gas
 8  52031 Osmolality                 Blood Blood Gas
 9  52022 Albumin, Blood             Blood Blood Gas
10  50806 Chloride, Whole Blood      Blood Blood Gas
# ℹ 1,612 more rows

[[14]]
# A tibble: 9,362 × 9
   subject_id  hadm_id  stay_id caregiver_id charttime          
        <dbl>    <dbl>    <dbl>        <dbl> <dttm>             
 1   10002428 23473524 35479615        29441 2156-05-15 18:00:00
 2   10002428 23473524 35479615        29441 2156-05-15 12:00:00
 3   10002428 23473524 35479615        29441 2156-05-15 13:00:00
 4   10002428 23473524 35479615        29441 2156-05-15 08:00:00
 5   10002428 23473524 35479615        29441 2156-05-15 14:00:00
 6   10002428 23473524 35479615        29441 2156-05-15 15:01:00
 7   10002428 23473524 35479615        29441 2156-05-15 10:14:00
 8   10027602 28166872 32391858        29441 2201-11-10 12:00:00
 9   10037861 24540843 34531557        29441 2117-03-16 17:00:00
10   10029291 22205327 36059427        24834 2123-02-24 01:00:00
# ℹ 9,352 more rows
# ℹ 4 more variables: storetime <dttm>, itemid <dbl>, value <dbl>,
#   valueuom <chr>
…
# select first ICU stay per subject; scope down to only suspected infection patients
infected_icustays <- icustays %>%
  inner_join(
    suspected_infection_onset %>% select(subject_id, hadm_id),
    by = c("subject_id", "hadm_id")
  ) %>%
  group_by(subject_id, hadm_id) %>% 
  arrange(intime) %>%
  slice(1) %>%
  ungroup() %>%
  select(subject_id, hadm_id, stay_id, intime, outtime)

infected_icustays

# A tibble: 102 × 5
   subject_id  hadm_id  stay_id intime              outtime            
        <dbl>    <dbl>    <dbl> <dttm>              <dttm>             
 1   10001217 24597018 37067082 2157-11-20 19:18:02 2157-11-21 22:08:00
 2   10001217 27703517 34592300 2157-12-19 15:42:24 2157-12-20 14:27:41
 3   10001725 25563031 31205490 2110-04-11 15:52:22 2110-04-12 23:59:56
 4   10002428 20321825 34807493 2156-04-30 21:53:00 2156-05-02 22:27:20
 5   10002428 23473524 35479615 2156-05-11 14:49:34 2156-05-22 14:16:46
 6   10002428 28662225 33987268 2156-04-12 16:24:18 2156-04-17 15:57:08
 7   10002495 24982426 36753294 2141-05-22 20:18:01 2141-05-27 22:24:02
 8   10002930 25922998 35629889 2198-04-17 21:24:00 2198-04-18 13:41:43
 9   10003046 26048429 35514836 2154-01-02 15:57:15 2154-01-04 15:19:56
10   10003400 20214994 32128372 2137-02-25 23:37:19 2137-03-10 21:29:36
# ℹ 92 more rows
…
